\BOOKMARK [1][-]{section.1}{Zad\341n\355}{}% 1
\BOOKMARK [2][-]{subsection.1.1}{Verze \372lohy}{section.1}% 2
\BOOKMARK [2][-]{subsection.1.2}{Teoretick\351 pozad\355}{section.1}% 3
\BOOKMARK [2][-]{subsection.1.3}{Meze parametru}{section.1}% 4
\BOOKMARK [2][-]{subsection.1.4}{Data}{section.1}% 5
\BOOKMARK [2][-]{subsection.1.5}{Program}{section.1}% 6
\BOOKMARK [1][-]{section.2}{Rozbor zad\341n\355}{}% 7
\BOOKMARK [1][-]{section.3}{Re\235en\355 d\355lc\355ch probl\351mu}{}% 8
\BOOKMARK [2][-]{subsection.3.1}{Kubick\375 spline}{section.3}% 9
\BOOKMARK [2][-]{subsection.3.2}{Nacten\355 konfigurace mez\355}{section.3}% 10
\BOOKMARK [2][-]{subsection.3.3}{Nacten\355 dat z SQLite datab\341ze}{section.3}% 11
\BOOKMARK [2][-]{subsection.3.4}{Diferenci\341ln\355 evoluce}{section.3}% 12
\BOOKMARK [2][-]{subsection.3.5}{Architektura}{section.3}% 13
\BOOKMARK [1][-]{section.4}{Paralelizace \(sd\355len\341 pamet\)}{}% 14
\BOOKMARK [1][-]{section.5}{Paralelizace \(distribuovan\341 pamet\)}{}% 15
\BOOKMARK [2][-]{subsection.5.1}{Metoda}{section.5}% 16
\BOOKMARK [2][-]{subsection.5.2}{Realizace}{section.5}% 17
\BOOKMARK [2][-]{subsection.5.3}{Pou\236it\351 zpr\341vy}{section.5}% 18
\BOOKMARK [1][-]{section.6}{Nameren\351 a vypocten\351 charakteristiky}{}% 19
\BOOKMARK [2][-]{subsection.6.1}{Doba behu v\375poctu}{section.6}% 20
\BOOKMARK [2][-]{subsection.6.2}{Odvozen\351 metriky}{section.6}% 21
\BOOKMARK [1][-]{section.7}{U\236ivatelsk\375 manu\341l}{}% 22
\BOOKMARK [2][-]{subsection.7.1}{Preklad na syst\351mu Windows}{section.7}% 23
\BOOKMARK [2][-]{subsection.7.2}{Preklad na syst\351mu Linux}{section.7}% 24
\BOOKMARK [2][-]{subsection.7.3}{Beh programu}{section.7}% 25
\BOOKMARK [1][-]{section.8}{Z\341ver}{}% 26
